module index

go 1.14

require (
	github.com/ajg/form v1.5.1 // indirect
	github.com/google/go-querystring v1.0.0 // indirect
	github.com/imkira/go-interpol v1.1.0 // indirect
	github.com/kataras/iris/v12 v12.1.8 // indirect
	github.com/moul/http2curl v1.0.0 // indirect
	github.com/sergi/go-diff v1.1.0 // indirect
	github.com/shurcooL/sanitized_anchor_name v1.0.0 // indirect
	github.com/valyala/fasthttp v1.16.0 // indirect
	github.com/xeipuuv/gojsonschema v1.2.0 // indirect
	github.com/yalp/jsonpath v0.0.0-20180802001716-5cc68e5049a0 // indirect
	github.com/yudai/gojsondiff v1.0.0 // indirect
	github.com/yudai/golcs v0.0.0-20170316035057-ecda9a501e82 // indirect
)
